{
	"info": {
		"_postman_id": "a4554c12-3405-483a-8c63-e44fabcce3ff",
		"name": "Tupaca",
		"schema": "https://schema.getpostman.com/json/collection/v2.1.0/collection.json",
		"_exporter_id": "14870268"
	},
	"item": [
		{
			"name": "Status with Tasks",
			"item": [
				{
					"name": "Create Board",
					"request": {
						"method": "POST",
						"header": [],
						"url": {
							"raw": "http://localhost:8009/createBoard",
							"protocol": "http",
							"host": [
								"localhost"
							],
							"port": "8009",
							"path": [
								"createBoard"
							]
						}
					},
					"response": []
				},
				{
					"name": "Get All Status",
					"request": {
						"method": "GET",
						"header": [],
						"url": {
							"raw": "http://localhost:8009/status",
							"protocol": "http",
							"host": [
								"localhost"
							],
							"port": "8009",
							"path": [
								"status"
							]
						}
					},
					"response": []
				},
				{
					"name": "Filter Tasks",
					"protocolProfileBehavior": {
						"disableBodyPruning": true
					},
					"request": {
						"method": "GET",
						"header": [],
						"body": {
							"mode": "raw",
							"raw": ""
						},
						"url": {
							"raw": "http://localhost:8009/status/filter",
							"protocol": "http",
							"host": [
								"localhost"
							],
							"port": "8009",
							"path": [
								"status",
								"filter"
							]
						}
					},
					"response": [
						{
							"name": "Filter by Title",
							"originalRequest": {
								"method": "GET",
								"header": [],
								"body": {
									"mode": "raw",
									"raw": ""
								},
								"url": {
									"raw": "http://localhost:8009/status/filter?title=A",
									"protocol": "http",
									"host": [
										"localhost"
									],
									"port": "8009",
									"path": [
										"status",
										"filter"
									],
									"query": [
										{
											"key": "title",
											"value": "A"
										}
									]
								}
							},
							"_postman_previewlanguage": null,
							"header": null,
							"cookie": [],
							"body": null
						},
						{
							"name": "Filter by Title and Description",
							"originalRequest": {
								"method": "GET",
								"header": [],
								"body": {
									"mode": "raw",
									"raw": ""
								},
								"url": {
									"raw": "http://localhost:8009/status/filter?title=A&description=B",
									"protocol": "http",
									"host": [
										"localhost"
									],
									"port": "8009",
									"path": [
										"status",
										"filter"
									],
									"query": [
										{
											"key": "title",
											"value": "A"
										},
										{
											"key": "description",
											"value": "B"
										}
									]
								}
							},
							"_postman_previewlanguage": null,
							"header": null,
							"cookie": [],
							"body": null
						}
					]
				},
				{
					"name": "Sort Tasks",
					"protocolProfileBehavior": {
						"disableBodyPruning": true
					},
					"request": {
						"method": "GET",
						"header": [],
						"body": {
							"mode": "raw",
							"raw": ""
						},
						"url": {
							"raw": "http://localhost:8009/status/sort",
							"protocol": "http",
							"host": [
								"localhost"
							],
							"port": "8009",
							"path": [
								"status",
								"sort"
							]
						}
					},
					"response": [
						{
							"name": "Sort Tasks Asc",
							"originalRequest": {
								"method": "GET",
								"header": [],
								"body": {
									"mode": "raw",
									"raw": ""
								},
								"url": {
									"raw": "http://localhost:8009/tasks/sort?key=title&order=asc",
									"protocol": "http",
									"host": [
										"localhost"
									],
									"port": "8009",
									"path": [
										"tasks",
										"sort"
									],
									"query": [
										{
											"key": "key",
											"value": "title"
										},
										{
											"key": "order",
											"value": "asc"
										}
									]
								}
							},
							"_postman_previewlanguage": null,
							"header": null,
							"cookie": [],
							"body": null
						},
						{
							"name": "Sort Tasks Desc",
							"originalRequest": {
								"method": "GET",
								"header": [],
								"body": {
									"mode": "raw",
									"raw": ""
								},
								"url": {
									"raw": "http://localhost:8009/tasks/sort?key=title&order=desc",
									"protocol": "http",
									"host": [
										"localhost"
									],
									"port": "8009",
									"path": [
										"tasks",
										"sort"
									],
									"query": [
										{
											"key": "key",
											"value": "title"
										},
										{
											"key": "order",
											"value": "desc"
										}
									]
								}
							},
							"_postman_previewlanguage": null,
							"header": null,
							"cookie": [],
							"body": null
						}
					]
				}
			]
		},
		{
			"name": "Tasks",
			"item": [
				{
					"name": "Get All Tasks",
					"request": {
						"method": "GET",
						"header": [],
						"url": {
							"raw": "http://localhost:8009/tasks",
							"protocol": "http",
							"host": [
								"localhost"
							],
							"port": "8009",
							"path": [
								"tasks"
							]
						}
					},
					"response": []
				},
				{
					"name": "Sort Tasks",
					"protocolProfileBehavior": {
						"disableBodyPruning": true
					},
					"request": {
						"method": "GET",
						"header": [],
						"body": {
							"mode": "raw",
							"raw": ""
						},
						"url": {
							"raw": "http://localhost:8009/tasks/sort",
							"protocol": "http",
							"host": [
								"localhost"
							],
							"port": "8009",
							"path": [
								"tasks",
								"sort"
							]
						}
					},
					"response": [
						{
							"name": "Sort Tasks Asc",
							"originalRequest": {
								"method": "GET",
								"header": [],
								"body": {
									"mode": "raw",
									"raw": ""
								},
								"url": {
									"raw": "http://localhost:8009/tasks/sort?key=title&order=asc",
									"protocol": "http",
									"host": [
										"localhost"
									],
									"port": "8009",
									"path": [
										"tasks",
										"sort"
									],
									"query": [
										{
											"key": "key",
											"value": "title"
										},
										{
											"key": "order",
											"value": "asc"
										}
									]
								}
							},
							"_postman_previewlanguage": null,
							"header": null,
							"cookie": [],
							"body": null
						},
						{
							"name": "Sort Tasks Desc",
							"originalRequest": {
								"method": "GET",
								"header": [],
								"body": {
									"mode": "raw",
									"raw": ""
								},
								"url": {
									"raw": "http://localhost:8009/tasks/sort?key=title&order=desc",
									"protocol": "http",
									"host": [
										"localhost"
									],
									"port": "8009",
									"path": [
										"tasks",
										"sort"
									],
									"query": [
										{
											"key": "key",
											"value": "title"
										},
										{
											"key": "order",
											"value": "desc"
										}
									]
								}
							},
							"_postman_previewlanguage": null,
							"header": null,
							"cookie": [],
							"body": null
						}
					]
				},
				{
					"name": "Filter Tasks",
					"protocolProfileBehavior": {
						"disableBodyPruning": true
					},
					"request": {
						"method": "GET",
						"header": [],
						"body": {
							"mode": "raw",
							"raw": ""
						},
						"url": {
							"raw": "http://localhost:8009/tasks/filter",
							"protocol": "http",
							"host": [
								"localhost"
							],
							"port": "8009",
							"path": [
								"tasks",
								"filter"
							]
						}
					},
					"response": [
						{
							"name": "Filter Tasks by Title",
							"originalRequest": {
								"method": "GET",
								"header": [],
								"body": {
									"mode": "raw",
									"raw": ""
								},
								"url": {
									"raw": "http://localhost:8009/tasks/filter?title=A",
									"protocol": "http",
									"host": [
										"localhost"
									],
									"port": "8009",
									"path": [
										"tasks",
										"filter"
									],
									"query": [
										{
											"key": "title",
											"value": "A"
										}
									]
								}
							},
							"_postman_previewlanguage": null,
							"header": null,
							"cookie": [],
							"body": null
						},
						{
							"name": "Filter Tasks by Title and Description",
							"originalRequest": {
								"method": "GET",
								"header": [],
								"body": {
									"mode": "raw",
									"raw": ""
								},
								"url": {
									"raw": "http://localhost:8009/tasks/filter?title=A&description=A",
									"protocol": "http",
									"host": [
										"localhost"
									],
									"port": "8009",
									"path": [
										"tasks",
										"filter"
									],
									"query": [
										{
											"key": "title",
											"value": "A"
										},
										{
											"key": "description",
											"value": "A"
										}
									]
								}
							},
							"_postman_previewlanguage": null,
							"header": null,
							"cookie": [],
							"body": null
						}
					]
				},
				{
					"name": "Add Task",
					"request": {
						"method": "POST",
						"header": [],
						"body": {
							"mode": "raw",
							"raw": "{\r\n    \"title\": \"NUEVA TAREA uno 3\",\r\n    \"description\": \"This is a new task\",\r\n    \"status\": 0\r\n}",
							"options": {
								"raw": {
									"language": "json"
								}
							}
						},
						"url": {
							"raw": "http://localhost:8009/tasks",
							"protocol": "http",
							"host": [
								"localhost"
							],
							"port": "8009",
							"path": [
								"tasks"
							]
						}
					},
					"response": [
						{
							"name": "Add Task",
							"originalRequest": {
								"method": "POST",
								"header": [],
								"body": {
									"mode": "raw",
									"raw": "{\r\n    \"title\": \"NUEVA TAREA\",\r\n    \"description\": \"This is a new task\",\r\n    \"status\": 0\r\n}",
									"options": {
										"raw": {
											"language": "json"
										}
									}
								},
								"url": {
									"raw": "http://localhost:8009/tasks",
									"protocol": "http",
									"host": [
										"localhost"
									],
									"port": "8009",
									"path": [
										"tasks"
									]
								}
							},
							"_postman_previewlanguage": null,
							"header": null,
							"cookie": [],
							"body": null
						}
					]
				},
				{
					"name": "Update Task",
					"request": {
						"method": "PUT",
						"header": [
							{
								"key": "Content-Type",
								"name": "Content-Type",
								"value": "application/json",
								"type": "text"
							}
						],
						"body": {
							"mode": "raw",
							"raw": "",
							"options": {
								"raw": {
									"language": "json"
								}
							}
						},
						"url": {
							"raw": "http://localhost:8009/tasks/:id",
							"protocol": "http",
							"host": [
								"localhost"
							],
							"port": "8009",
							"path": [
								"tasks",
								":id"
							],
							"variable": [
								{
									"key": "id",
									"value": ""
								}
							]
						}
					},
					"response": [
						{
							"name": "Update Task",
							"originalRequest": {
								"method": "PUT",
								"header": [
									{
										"key": "Content-Type",
										"name": "Content-Type",
										"value": "application/json",
										"type": "text"
									}
								],
								"body": {
									"mode": "raw",
									"raw": "{\n    \"title\": \"Esta es la tarea editada\",\n    \"description\": \"\",\n    \"status\": 0\n}",
									"options": {
										"raw": {
											"language": "json"
										}
									}
								},
								"url": {
									"raw": "http://localhost:8009/tasks/0",
									"protocol": "http",
									"host": [
										"localhost"
									],
									"port": "8009",
									"path": [
										"tasks",
										"0"
									]
								}
							},
							"_postman_previewlanguage": null,
							"header": null,
							"cookie": [],
							"body": null
						}
					]
				},
				{
					"name": "Delete Task",
					"request": {
						"method": "DELETE",
						"header": [],
						"body": {
							"mode": "raw",
							"raw": "",
							"options": {
								"raw": {
									"language": "json"
								}
							}
						},
						"url": {
							"raw": "http://localhost:8009/tasks/0",
							"protocol": "http",
							"host": [
								"localhost"
							],
							"port": "8009",
							"path": [
								"tasks",
								"0"
							]
						}
					},
					"response": []
				}
			]
		}
	]
}